
{
  "header": {
    "reportVersion": 1,
    "event": "Allocation failed - JavaScript heap out of memory",
    "trigger": "FatalError",
    "filename": "report.20200712.135754.7044.0.001.json",
    "dumpEventTime": "2020-07-12T13:57:54Z",
    "dumpEventTimeStamp": "1594580274524",
    "processId": 7044,
    "cwd": "D:\\ReactNative\\5-tenedores",
    "commandLine": [
      "C:\\Program Files\\nodejs\\node.exe",
      "D:\\ReactNative\\5-tenedores\\node_modules\\react-native\\local-cli\\cli.js",
      "start",
      "--port",
      "19001",
      "--customLogReporterPath",
      "C:\\Users\\david\\AppData\\Roaming\\npm\\node_modules\\expo-cli\\node_modules\\@expo\\xdl\\build\\reporter\\index.js",
      "--sourceExts",
      "expo.ts,expo.tsx,expo.js,expo.jsx,ts,tsx,js,jsx,json,wasm",
      "--assetPlugins",
      "D:\\ReactNative\\5-tenedores\\node_modules\\expo-asset\\tools\\hashAssetFiles.js"
    ],
    "nodejsVersion": "v12.16.1",
    "wordSize": 64,
    "arch": "x64",
    "platform": "win32",
    "componentVersions": {
      "node": "12.16.1",
      "v8": "7.8.279.23-node.31",
      "uv": "1.34.0",
      "zlib": "1.2.11",
      "brotli": "1.0.7",
      "ares": "1.15.0",
      "modules": "72",
      "nghttp2": "1.40.0",
      "napi": "5",
      "llhttp": "2.0.4",
      "http_parser": "2.9.3",
      "openssl": "1.1.1d",
      "cldr": "35.1",
      "icu": "64.2",
      "tz": "2019c",
      "unicode": "12.1"
    },
    "release": {
      "name": "node",
      "lts": "Erbium",
      "headersUrl": "https://nodejs.org/download/release/v12.16.1/node-v12.16.1-headers.tar.gz",
      "sourceUrl": "https://nodejs.org/download/release/v12.16.1/node-v12.16.1.tar.gz",
      "libUrl": "https://nodejs.org/download/release/v12.16.1/win-x64/node.lib"
    },
    "osName": "Windows_NT",
    "osRelease": "10.0.18362",
    "osVersion": "Windows 10 Pro",
    "osMachine": "x86_64",
    "cpus": [
      {
        "model": "Intel(R) Core(TM) i5-4200U CPU @ 1.60GHz",
        "speed": 2295,
        "user": 600500,
        "nice": 0,
        "sys": 397906,
        "idle": 6025484,
        "irq": 48968
      },
      {
        "model": "Intel(R) Core(TM) i5-4200U CPU @ 1.60GHz",
        "speed": 2295,
        "user": 547531,
        "nice": 0,
        "sys": 245203,
        "idle": 6231156,
        "irq": 13562
      },
      {
        "model": "Intel(R) Core(TM) i5-4200U CPU @ 1.60GHz",
        "speed": 2295,
        "user": 657234,
        "nice": 0,
        "sys": 275343,
        "idle": 6091312,
        "irq": 6343
      },
      {
        "model": "Intel(R) Core(TM) i5-4200U CPU @ 1.60GHz",
        "speed": 2295,
        "user": 639781,
        "nice": 0,
        "sys": 227375,
        "idle": 6156734,
        "irq": 4703
      }
    ],
    "networkInterfaces": [
      {
        "name": "Wi-Fi",
        "internal": false,
        "mac": "28:e3:47:df:4e:19",
        "address": "fe80::dc56:2efc:c9d3:da5b",
        "netmask": "ffff:ffff:ffff:ffff::",
        "family": "IPv6",
        "scopeid": 10
      },
      {
        "name": "Wi-Fi",
        "internal": false,
        "mac": "28:e3:47:df:4e:19",
        "address": "192.168.1.61",
        "netmask": "255.255.255.0",
        "family": "IPv4"
      },
      {
        "name": "Loopback Pseudo-Interface 1",
        "internal": true,
        "mac": "00:00:00:00:00:00",
        "address": "::1",
        "netmask": "ffff:ffff:ffff:ffff:ffff:ffff:ffff:ffff",
        "family": "IPv6",
        "scopeid": 0
      },
      {
        "name": "Loopback Pseudo-Interface 1",
        "internal": true,
        "mac": "00:00:00:00:00:00",
        "address": "127.0.0.1",
        "netmask": "255.0.0.0",
        "family": "IPv4"
      }
    ],
    "host": "DESKTOP-69F0893"
  },
  "javascriptStack": {
    "message": "No stack.",
    "stack": [
      "Unavailable."
    ]
  },
  "nativeStack": [
    {
      "pc": "0x00007ff778c519f9",
      "symbol": "std::basic_ostream<char,std::char_traits<char> >::operator<<+10873"
    },
    {
      "pc": "0x00007ff778c55e1c",
      "symbol": "std::basic_ostream<char,std::char_traits<char> >::operator<<+28316"
    },
    {
      "pc": "0x00007ff778c54dd8",
      "symbol": "std::basic_ostream<char,std::char_traits<char> >::operator<<+24152"
    },
    {
      "pc": "0x00007ff778d534cb",
      "symbol": "v8::base::CPU::has_sse+38363"
    },
    {
      "pc": "0x00007ff779569f4e",
      "symbol": "v8::Isolate::ReportExternalAllocationLimitReached+94"
    },
    {
      "pc": "0x00007ff779552021",
      "symbol": "v8::SharedArrayBuffer::Externalize+833"
    },
    {
      "pc": "0x00007ff77941e57c",
      "symbol": "v8::internal::Heap::EphemeronKeyWriteBarrierFromCode+1436"
    },
    {
      "pc": "0x00007ff7794297d0",
      "symbol": "v8::internal::Heap::ProtectUnprotectedMemoryChunks+1312"
    },
    {
      "pc": "0x00007ff7794262f4",
      "symbol": "v8::internal::Heap::PageFlagsAreConsistent+3204"
    },
    {
      "pc": "0x00007ff77941bb13",
      "symbol": "v8::internal::Heap::CollectGarbage+1283"
    },
    {
      "pc": "0x00007ff77941a184",
      "symbol": "v8::internal::Heap::AddRetainedMap+2452"
    },
    {
      "pc": "0x00007ff77943b36d",
      "symbol": "v8::internal::Factory::NewFillerObject+61"
    },
    {
      "pc": "0x00007ff7791a0c51",
      "symbol": "v8::internal::interpreter::JumpTableTargetOffsets::iterator::operator=+1665"
    },
    {
      "pc": "0x00007ff7799b4ddd",
      "symbol": "v8::internal::SetupIsolateDelegate::SetupHeap+546637"
    },
    {
      "pc": "0x00007ff7799b5ed3",
      "symbol": "v8::internal::SetupIsolateDelegate::SetupHeap+550979"
    },
    {
      "pc": "0x0000028c20369183",
      "symbol": ""
    }
  ],
  "javascriptHeap": {
    "totalMemory": 2154536960,
    "totalCommittedMemory": 2154536960,
    "usedMemory": 2139087136,
    "availableMemory": 48016568,
    "memoryLimit": 2197815296,
    "heapSpaces": {
      "read_only_space": {
        "memorySize": 262144,
        "committedMemory": 262144,
        "capacity": 32808,
        "used": 32808,
        "available": 0
      },
      "new_space": {
        "memorySize": 4194304,
        "committedMemory": 4194304,
        "capacity": 2094912,
        "used": 139832,
        "available": 1955080
      },
      "old_space": {
        "memorySize": 1960460288,
        "committedMemory": 1960460288,
        "capacity": 1956456664,
        "used": 1955768424,
        "available": 688240
      },
      "code_space": {
        "memorySize": 1216512,
        "committedMemory": 1216512,
        "capacity": 965216,
        "used": 965216,
        "available": 0
      },
      "map_space": {
        "memorySize": 6819840,
        "committedMemory": 6819840,
        "capacity": 1599680,
        "used": 1599680,
        "available": 0
      },
      "large_object_space": {
        "memorySize": 181534720,
        "committedMemory": 181534720,
        "capacity": 180578392,
        "used": 180578392,
        "available": 0
      },
      "code_large_object_space": {
        "memorySize": 49152,
        "committedMemory": 49152,
        "capacity": 2784,
        "used": 2784,
        "available": 0
      },
      "new_large_object_space": {
        "memorySize": 0,
        "committedMemory": 0,
        "capacity": 2094912,
        "used": 0,
        "available": 2094912
      }
    }
  },
  "resourceUsage": {
    "userCpuSeconds": 210.859,
    "kernelCpuSeconds": 23.828,
    "cpuConsumptionPercent": 52.2688,
    "maxRss": 2283683840,
    "pageFaults": {
      "IORequired": 1158029,
      "IONotRequired": 0
    },
    "fsActivity": {
      "reads": 26303,
      "writes": 38617
    }
  },
  "libuv": [
  ],
  "environmentVariables": {
    "ALLUSERSPROFILE": "C:\\ProgramData",
    "APPDATA": "C:\\Users\\david\\AppData\\Roaming",
    "CHROME_CRASHPAD_PIPE_NAME": "\\\\.\\pipe\\crashpad_9772_CCXEFSUKUFTCVHJT",
    "CHROME_RESTART": "Google Chrome|¡Vaya! Se ha producido un fallo en Google Chrome. ¿Quieres reiniciar el navegador ahora?|LEFT_TO_RIGHT",
    "COLORTERM": "truecolor",
    "CommonProgramFiles": "C:\\Program Files\\Common Files",
    "CommonProgramFiles(x86)": "C:\\Program Files (x86)\\Common Files",
    "CommonProgramW6432": "C:\\Program Files\\Common Files",
    "COMPUTERNAME": "DESKTOP-69F0893",
    "ComSpec": "C:\\Windows\\system32\\cmd.exe",
    "DriverData": "C:\\Windows\\System32\\Drivers\\DriverData",
    "ELECTRON_RUN_AS_NODE": "1",
    "GIT_ASKPASS": "c:\\Users\\david\\AppData\\Local\\Programs\\Microsoft VS Code\\resources\\app\\extensions\\git\\dist\\askpass.sh",
    "HOMEDRIVE": "C:",
    "HOMEPATH": "\\Users\\david",
    "LANG": "es_ES.UTF-8",
    "LOCALAPPDATA": "C:\\Users\\david\\AppData\\Local",
    "LOGONSERVER": "\\\\DESKTOP-69F0893",
    "NUMBER_OF_PROCESSORS": "4",
    "OneDrive": "C:\\Users\\david\\OneDrive",
    "ORIGINAL_XDG_CURRENT_DESKTOP": "undefined",
    "OS": "Windows_NT",
    "Path": "C:\\Program Files (x86)\\Google\\Chrome\\Application;C:\\Program Files (x86)\\Common Files\\Oracle\\Java\\javapath;C:\\Windows\\system32;C:\\Windows;C:\\Windows\\System32\\Wbem;C:\\Windows\\System32\\WindowsPowerShell\\v1.0\\;C:\\Windows\\System32\\OpenSSH\\;C:\\Program Files\\Git\\cmd;C:\\Program Files\\nodejs\\;C:\\Program Files (x86)\\Yarn\\bin\\;C:\\Users\\david\\AppData\\Local\\Microsoft\\WindowsApps;C:\\Program Files\\JetBrains\\WebStorm 2019.2\\bin;C:\\Program Files\\JetBrains\\WebStorm 2019.2.3\\bin;C:\\Users\\david\\AppData\\Roaming\\npm;C:\\Users\\david\\AppData\\Local\\Yarn\\bin",
    "PATHEXT": ".COM;.EXE;.BAT;.CMD;.VBS;.VBE;.JS;.JSE;.WSF;.WSH;.MSC;.CPL",
    "PROCESSOR_ARCHITECTURE": "AMD64",
    "PROCESSOR_IDENTIFIER": "Intel64 Family 6 Model 69 Stepping 1, GenuineIntel",
    "PROCESSOR_LEVEL": "6",
    "PROCESSOR_REVISION": "4501",
    "ProgramData": "C:\\ProgramData",
    "ProgramFiles": "C:\\Program Files",
    "ProgramFiles(x86)": "C:\\Program Files (x86)",
    "ProgramW6432": "C:\\Program Files",
    "PSModulePath": "C:\\Users\\david\\Documents\\WindowsPowerShell\\Modules;C:\\Program Files\\WindowsPowerShell\\Modules;C:\\Windows\\system32\\WindowsPowerShell\\v1.0\\Modules",
    "PUBLIC": "C:\\Users\\Public",
    "REACT_NATIVE_APP_ROOT": "D:\\ReactNative\\5-tenedores",
    "SESSIONNAME": "Console",
    "SystemDrive": "C:",
    "SystemRoot": "C:\\Windows",
    "TEMP": "C:\\Users\\david\\AppData\\Local\\Temp",
    "TERM_PROGRAM": "vscode",
    "TERM_PROGRAM_VERSION": "1.47.0",
    "TMP": "C:\\Users\\david\\AppData\\Local\\Temp",
    "USERDOMAIN": "DESKTOP-69F0893",
    "USERDOMAIN_ROAMINGPROFILE": "DESKTOP-69F0893",
    "USERNAME": "david",
    "USERPROFILE": "C:\\Users\\david",
    "VSCODE_GIT_ASKPASS_MAIN": "c:\\Users\\david\\AppData\\Local\\Programs\\Microsoft VS Code\\resources\\app\\extensions\\git\\dist\\askpass-main.js",
    "VSCODE_GIT_ASKPASS_NODE": "C:\\Users\\david\\AppData\\Local\\Programs\\Microsoft VS Code\\Code.exe",
    "VSCODE_GIT_IPC_HANDLE": "\\\\.\\pipe\\vscode-git-7ff570c3c8-sock",
    "WebStorm": "C:\\Program Files\\JetBrains\\WebStorm 2019.2.3\\bin;",
    "windir": "C:\\Windows"
  },
  "sharedObjects": [
    "C:\\Program Files\\nodejs\\node.exe",
    "C:\\Windows\\SYSTEM32\\ntdll.dll",
    "C:\\Windows\\System32\\KERNEL32.DLL",
    "C:\\Windows\\System32\\KERNELBASE.dll",
    "C:\\Windows\\System32\\WS2_32.dll",
    "C:\\Windows\\System32\\RPCRT4.dll",
    "C:\\Windows\\SYSTEM32\\dbghelp.dll",
    "C:\\Windows\\System32\\PSAPI.DLL",
    "C:\\Windows\\System32\\ucrtbase.dll",
    "C:\\Windows\\System32\\ADVAPI32.dll",
    "C:\\Windows\\System32\\msvcrt.dll",
    "C:\\Windows\\System32\\sechost.dll",
    "C:\\Windows\\SYSTEM32\\IPHLPAPI.DLL",
    "C:\\Windows\\SYSTEM32\\USERENV.dll",
    "C:\\Windows\\System32\\USER32.dll",
    "C:\\Windows\\System32\\win32u.dll",
    "C:\\Windows\\System32\\profapi.dll",
    "C:\\Windows\\System32\\GDI32.dll",
    "C:\\Windows\\System32\\gdi32full.dll",
    "C:\\Windows\\System32\\msvcp_win.dll",
    "C:\\Windows\\System32\\CRYPT32.dll",
    "C:\\Windows\\System32\\MSASN1.dll",
    "C:\\Windows\\System32\\bcrypt.dll",
    "C:\\Windows\\SYSTEM32\\WINMM.dll",
    "C:\\Windows\\SYSTEM32\\winmmbase.dll",
    "C:\\Windows\\System32\\cfgmgr32.dll",
    "C:\\Windows\\System32\\bcryptPrimitives.dll",
    "C:\\Windows\\System32\\IMM32.DLL",
    "C:\\Windows\\System32\\powrprof.dll",
    "C:\\Windows\\System32\\UMPDC.dll",
    "C:\\Windows\\SYSTEM32\\CRYPTBASE.DLL",
    "C:\\Windows\\system32\\uxtheme.dll",
    "C:\\Windows\\System32\\combase.dll",
    "C:\\Windows\\system32\\mswsock.dll",
    "C:\\Windows\\System32\\kernel.appcore.dll",
    "C:\\Windows\\system32\\napinsp.dll",
    "C:\\Windows\\system32\\pnrpnsp.dll",
    "C:\\Windows\\SYSTEM32\\DNSAPI.dll",
    "C:\\Windows\\System32\\NSI.dll",
    "C:\\Windows\\System32\\winrnr.dll",
    "C:\\Windows\\system32\\NLAapi.dll",
    "C:\\Windows\\system32\\wshbth.dll",
    "C:\\Windows\\SYSTEM32\\dhcpcsvc6.DLL",
    "C:\\Windows\\SYSTEM32\\dhcpcsvc.DLL",
    "C:\\Windows\\System32\\rasadhlp.dll",
    "C:\\Windows\\System32\\fwpuclnt.dll"
  ]
}